[
  {
    "fieldInput": "id:increments",
    "htmlType": "",
    "validations": "",
    "searchable": false,
    "fillable": false,
    "primary": true
  },
  {
    "fieldInput": "titulo:string",
    "htmlType": "text",
    "validations": "required",
    "searchable": true
  },
  {
    "fieldInput": "sub-titulo:string",
    "htmlType": "text",
    "validations": "required",
    "searchable": true
  },
  {
    "fieldInput": "descripcion:string",
    "htmlType": "textarea",
    "validations": "required",
    "searchable": true
  },
  {
    "fieldInput": "image:string",
    "htmlType": "file",
    "validations": "required",
    "searchable": true
  },
  {
    "fieldInput": "url:string",
    "htmlType": "text",
    "validations": "required",
    "searchable": true
  }

]